<?xml version="1.0" encoding="UTF-8"?>
<testng-results skipped="0" failed="1" ignored="4" total="5" passed="0">
  <reporter-output>
  </reporter-output>
  <suite name="APITestSuite" duration-ms="180431" started-at="2018-07-31T05:24:17Z" finished-at="2018-07-31T05:27:18Z">
    <groups>
      <group name="tracfone">
        <method signature="API_Tests.tracfone_APIs()[pri:0, instance:com.royalcyber.restassured.Tracfone_API_Sanity.API_Tests@5d624da6]" name="tracfone_APIs" class="com.royalcyber.restassured.Tracfone_API_Sanity.API_Tests"/>
      </group> <!-- tracfone -->
    </groups>
    <test name="API_Sanity" duration-ms="180431" started-at="2018-07-31T05:24:17Z" finished-at="2018-07-31T05:27:18Z">
      <class name="com.royalcyber.restassured.Tracfone_API_Sanity.API_Tests">
        <test-method status="PASS" signature="configAPI(java.lang.String, java.lang.String)[pri:0, instance:com.royalcyber.restassured.Tracfone_API_Sanity.API_Tests@5d624da6]" name="configAPI" is-config="true" duration-ms="1685" started-at="2018-07-31T01:24:16Z" finished-at="2018-07-31T01:24:17Z">
          <params>
            <param index="0">
              <value>
                <![CDATA[sit1]]>
              </value>
            </param>
            <param index="1">
              <value>
                <![CDATA[tracfone]]>
              </value>
            </param>
          </params>
          <reporter-output>
          </reporter-output>
        </test-method> <!-- configAPI -->
        <test-method status="FAIL" signature="tracfone_APIs()[pri:0, instance:com.royalcyber.restassured.Tracfone_API_Sanity.API_Tests@5d624da6]" name="tracfone_APIs" duration-ms="180353" started-at="2018-07-31T01:24:17Z" finished-at="2018-07-31T01:27:18Z">
          <exception class="java.lang.AssertionError">
            <message>
              <![CDATA[API has failed in this step expected [SUCCESS] but found [FAILURE]]]>
            </message>
            <full-stacktrace>
              <![CDATA[java.lang.AssertionError: API has failed in this step expected [SUCCESS] but found [FAILURE]
	at org.testng.Assert.fail(Assert.java:94)
	at org.testng.Assert.failNotEquals(Assert.java:513)
	at org.testng.Assert.assertEqualsImpl(Assert.java:135)
	at org.testng.Assert.assertEquals(Assert.java:116)
	at org.testng.Assert.assertEquals(Assert.java:190)
	at com.royalcyber.restassured.Tracfone_API_Sanity.API_Tests.tracfone_APIs(API_Tests.java:189)
	at sun.reflect.NativeMethodAccessorImpl.invoke0(Native Method)
	at sun.reflect.NativeMethodAccessorImpl.invoke(NativeMethodAccessorImpl.java:62)
	at sun.reflect.DelegatingMethodAccessorImpl.invoke(DelegatingMethodAccessorImpl.java:43)
	at java.lang.reflect.Method.invoke(Method.java:498)
	at org.testng.internal.MethodInvocationHelper.invokeMethod(MethodInvocationHelper.java:104)
	at org.testng.internal.Invoker.invokeMethod(Invoker.java:645)
	at org.testng.internal.Invoker.invokeTestMethod(Invoker.java:851)
	at org.testng.internal.Invoker.invokeTestMethods(Invoker.java:1177)
	at org.testng.internal.TestMethodWorker.invokeTestMethods(TestMethodWorker.java:129)
	at org.testng.internal.TestMethodWorker.run(TestMethodWorker.java:112)
	at org.testng.TestRunner.privateRun(TestRunner.java:756)
	at org.testng.TestRunner.run(TestRunner.java:610)
	at org.testng.SuiteRunner.runTest(SuiteRunner.java:387)
	at org.testng.SuiteRunner.runSequentially(SuiteRunner.java:382)
	at org.testng.SuiteRunner.privateRun(SuiteRunner.java:340)
	at org.testng.SuiteRunner.run(SuiteRunner.java:289)
	at org.testng.SuiteRunnerWorker.runSuite(SuiteRunnerWorker.java:52)
	at org.testng.SuiteRunnerWorker.run(SuiteRunnerWorker.java:86)
	at org.testng.TestNG.runSuitesSequentially(TestNG.java:1293)
	at org.testng.TestNG.runSuitesLocally(TestNG.java:1218)
	at org.testng.TestNG.runSuites(TestNG.java:1133)
	at org.testng.TestNG.run(TestNG.java:1104)
	at org.apache.maven.surefire.testng.TestNGExecutor.run(TestNGExecutor.java:283)
	at org.apache.maven.surefire.testng.TestNGXmlTestSuite.execute(TestNGXmlTestSuite.java:75)
	at org.apache.maven.surefire.testng.TestNGProvider.invoke(TestNGProvider.java:120)
	at org.apache.maven.surefire.booter.ForkedBooter.invokeProviderInSameClassLoader(ForkedBooter.java:379)
	at org.apache.maven.surefire.booter.ForkedBooter.runSuitesInProcess(ForkedBooter.java:340)
	at org.apache.maven.surefire.booter.ForkedBooter.execute(ForkedBooter.java:125)
	at org.apache.maven.surefire.booter.ForkedBooter.main(ForkedBooter.java:413)
]]>
            </full-stacktrace>
          </exception> <!-- java.lang.AssertionError -->
          <reporter-output>
          </reporter-output>
        </test-method> <!-- tracfone_APIs -->
      </class> <!-- com.royalcyber.restassured.Tracfone_API_Sanity.API_Tests -->
    </test> <!-- API_Sanity -->
  </suite> <!-- APITestSuite -->
</testng-results>
